<?xml version="1.0" encoding="utf-8"?>
<!-- Generator: Adobe Illustrator 19.0.0, SVG Export Plug-In . SVG Version: 6.00 Build 0)  -->
<svg version="1.1" id="Layer_1" xmlns="http://www.w3.org/2000/svg" xmlns:xlink="http://www.w3.org/1999/xlink" x="0px" y="0px"
	 viewBox="0 0 159.6 26.5" style="enable-background:new 0 0 159.6 26.5;" xml:space="preserve">
<style type="text/css">
	.st0{display:none;}
	.st1{display:inline;}
	.st2{fill:url(#XMLID_183_);}
	.st3{fill:#FFFFFF;}
	.st4{fill:url(#XMLID_184_);}
	.st5{fill:url(#XMLID_185_);}
	.st6{fill:url(#XMLID_186_);}
	.st7{fill:url(#XMLID_187_);}
	.st8{fill:url(#XMLID_188_);}
	.st9{fill:url(#XMLID_189_);}
	.st10{fill:url(#XMLID_190_);}
	.st11{fill:url(#XMLID_191_);}
	.st12{fill:url(#XMLID_192_);}
	.st13{fill:url(#XMLID_193_);}
	.st14{fill:url(#XMLID_194_);}
	.st15{fill:url(#XMLID_195_);}
	.st16{fill:url(#XMLID_196_);}
	.st17{fill:url(#XMLID_197_);}
	.st18{fill:url(#XMLID_198_);}
	.st19{fill:url(#XMLID_199_);}
	.st20{fill:url(#XMLID_200_);}
	.st21{fill:url(#XMLID_201_);}
	.st22{fill:url(#XMLID_202_);}
	.st23{fill:url(#XMLID_203_);}
	.st24{fill:url(#XMLID_204_);}
	.st25{fill:url(#XMLID_205_);}
	.st26{fill:url(#XMLID_206_);}
	.st27{display:none;fill:#FFFFFF;}
	.st28{fill:url(#XMLID_207_);}
</style>
<g id="XMLID_929_" class="st0">
	<g id="XMLID_1114_" class="st1">
		
			<linearGradient id="XMLID_183_" gradientUnits="userSpaceOnUse" x1="-0.1329" y1="63.8217" x2="24.6913" y2="32.9043" gradientTransform="matrix(1 -1.326744e-03 1.326744e-03 1 0.2096 2.7638)">
			<stop  offset="0.3817" style="stop-color:#0099CC"/>
			<stop  offset="1" style="stop-color:#7AC943"/>
		</linearGradient>
		<circle id="XMLID_1120_" class="st2" cx="13.2" cy="50.2" r="13.2"/>
		<g id="XMLID_1115_">
			<path id="XMLID_1117_" class="st3" d="M16.7,52.7l-3.6,0l0,6.2l-2.4,0l0-15.7l6,0c3.1,0,5,2,5,4.8C21.7,50.6,19.7,52.7,16.7,52.7
				z M16.5,45.3l-3.4,0l0,5.2l3.4,0c1.7,0,2.8-1,2.8-2.6C19.3,46.3,18.2,45.3,16.5,45.3z"/>
			
				<rect id="XMLID_1116_" x="4.8" y="50.5" transform="matrix(-1 1.326744e-03 -1.326744e-03 -1 17.9643 103.1953)" class="st3" width="8.3" height="2.2"/>
		</g>
	</g>
	<g id="XMLID_1026_" class="st1">
		<g id="XMLID_1081_">
			<linearGradient id="XMLID_184_" gradientUnits="userSpaceOnUse" x1="84.1479" y1="37.2773" x2="130.7221" y2="23.9704">
				<stop  offset="0" style="stop-color:#1DA8DE"/>
				<stop  offset="1" style="stop-color:#1CC98F"/>
			</linearGradient>
			<path id="XMLID_1089_" class="st4" d="M45.7,52.5h-5v8.7h-3.4V39.1h8.4c4.3,0,7.1,2.9,7.1,6.7C52.8,49.7,50.1,52.5,45.7,52.5z
				 M45.5,42.1h-4.9v7.4h4.9c2.3,0,3.9-1.3,3.9-3.7C49.5,43.5,47.9,42.1,45.5,42.1z"/>
			<linearGradient id="XMLID_185_" gradientUnits="userSpaceOnUse" x1="85.7022" y1="42.7173" x2="132.2764" y2="29.4104">
				<stop  offset="0" style="stop-color:#1DA8DE"/>
				<stop  offset="1" style="stop-color:#1CC98F"/>
			</linearGradient>
			<path id="XMLID_1087_" class="st5" d="M60.8,61.3c-3,0-4.3-2-4.3-4.4V39.1h3.2v17.6c0,1.2,0.4,1.8,1.7,1.8h1.4v2.7H60.8z"/>
			<linearGradient id="XMLID_186_" gradientUnits="userSpaceOnUse" x1="87.5909" y1="49.3278" x2="134.1651" y2="36.0209">
				<stop  offset="0" style="stop-color:#1DA8DE"/>
				<stop  offset="1" style="stop-color:#1CC98F"/>
			</linearGradient>
			<path id="XMLID_1084_" class="st6" d="M74.7,61.3v-1.4c-1.2,1.2-2.2,1.6-4.2,1.6c-2,0-3.3-0.5-4.2-1.4C65.5,59.2,65,58,65,56.6
				c0-2.6,1.8-4.5,5.5-4.5h4.2V51c0-2-1-3-3.5-3c-1.7,0-2.6,0.4-3.5,1.5l-2.1-2c1.5-1.7,3.1-2.3,5.7-2.3c4.3,0,6.5,1.8,6.5,5.4v10.6
				H74.7z M74.7,54.3H71c-1.9,0-2.8,0.8-2.8,2.3c0,1.4,0.9,2.2,2.9,2.2c1.2,0,2.1-0.1,3-0.9c0.5-0.5,0.7-1.2,0.7-2.3V54.3z"/>
			<linearGradient id="XMLID_187_" gradientUnits="userSpaceOnUse" x1="88.7761" y1="53.476" x2="135.3503" y2="40.1691">
				<stop  offset="0" style="stop-color:#1DA8DE"/>
				<stop  offset="1" style="stop-color:#1CC98F"/>
			</linearGradient>
			<path id="XMLID_1082_" class="st7" d="M92.4,61.3v-9.6c0-2.5-1.4-3.5-3.2-3.5c-1.8,0-3.3,1.1-3.3,3.5v9.6h-3.2V45.5h3.1v1.6
				c1.1-1.2,2.6-1.8,4.2-1.8c1.6,0,3,0.5,3.9,1.4c1.2,1.2,1.6,2.7,1.6,4.5v10.1H92.4z"/>
		</g>
		<g id="XMLID_1074_">
			<linearGradient id="XMLID_188_" gradientUnits="userSpaceOnUse" x1="99.7185" y1="59.3094" x2="132.7725" y2="47.5806">
				<stop  offset="0" style="stop-color:#1DA8DE"/>
				<stop  offset="1" style="stop-color:#1CC98F"/>
			</linearGradient>
			<path id="XMLID_1079_" class="st8" d="M126.2,61.4c-2.4,0-3.6-1.6-3.6-3.9V39.3h1.6v18.1c0,1.7,0.5,2.5,2.3,2.5h1.1v1.4H126.2z"
				/>
			<linearGradient id="XMLID_189_" gradientUnits="userSpaceOnUse" x1="102.1827" y1="66.2541" x2="135.2368" y2="54.5252">
				<stop  offset="0" style="stop-color:#1DA8DE"/>
				<stop  offset="1" style="stop-color:#1CC98F"/>
			</linearGradient>
			<path id="XMLID_1077_" class="st9" d="M141.3,61.4v-1.8c-1.1,1.3-2.6,2-4.4,2c-1.7,0-3-0.5-4-1.4c-1-1-1.6-2.4-1.6-4.2v-9.6h1.6
				v9.3c0,2.9,1.5,4.5,4.1,4.5c2.7,0,4.2-1.7,4.2-4.5v-9.3h1.6v15H141.3z"/>
			<linearGradient id="XMLID_190_" gradientUnits="userSpaceOnUse" x1="104.0345" y1="71.4727" x2="137.0885" y2="59.7439">
				<stop  offset="0" style="stop-color:#1DA8DE"/>
				<stop  offset="1" style="stop-color:#1CC98F"/>
			</linearGradient>
			<path id="XMLID_1075_" class="st10" d="M153.6,61.5c-2.6,0-4.5-0.7-6.1-2.1l1.1-1.1c1.2,1.2,2.8,1.8,4.9,1.8c2.9,0,4.5-1,4.5-3.1
				c0-1.6-0.9-2.3-2.9-2.5l-2.5-0.2c-3-0.2-4.5-1.6-4.5-3.9c0-2.6,2.1-4.3,5.4-4.3c2.1,0,4,0.6,5.3,1.6l-1.1,1.1
				c-1.2-0.8-2.6-1.3-4.2-1.3c-2.5,0-3.8,1.1-3.8,2.9c0,1.6,0.9,2.3,3.1,2.5l2.4,0.2c2.5,0.2,4.4,1,4.4,3.9
				C159.6,59.8,157.3,61.5,153.6,61.5z"/>
		</g>
		<g id="XMLID_1033_">
			<linearGradient id="XMLID_191_" gradientUnits="userSpaceOnUse" x1="97.521" y1="53.1163" x2="130.575" y2="41.3875">
				<stop  offset="0" style="stop-color:#1DA8DE"/>
				<stop  offset="1" style="stop-color:#1CC98F"/>
			</linearGradient>
			<path id="XMLID_1068_" class="st11" d="M112,51h-5.6v10.2h-1.7v-22h7.3c3.9,0,6.8,1.9,6.8,5.9S115.9,51,112,51z M111.8,40.8h-5.4
				v8.8h5.4c3.1,0,5.2-1.1,5.2-4.4C117,41.8,114.9,40.8,111.8,40.8z"/>
			<linearGradient id="XMLID_192_" gradientUnits="userSpaceOnUse" x1="96.9732" y1="51.5727" x2="130.0273" y2="39.8439">
				<stop  offset="0" style="stop-color:#1DA8DE"/>
				<stop  offset="1" style="stop-color:#1CC98F"/>
			</linearGradient>
			<rect id="XMLID_1066_" x="94" y="49.5" class="st12" width="13.2" height="1.5"/>
		</g>
		<g id="XMLID_1027_">
			<linearGradient id="XMLID_193_" gradientUnits="userSpaceOnUse" x1="97.5387" y1="53.1664" x2="130.5928" y2="41.4376">
				<stop  offset="0" style="stop-color:#1DA8DE"/>
				<stop  offset="1" style="stop-color:#1CC98F"/>
			</linearGradient>
			<path id="XMLID_1029_" class="st13" d="M112,51.1h-5.6v10.2h-1.7v-22h7.3c3.9,0,6.8,1.9,6.8,5.9S115.9,51.1,112,51.1z
				 M111.8,40.8h-5.4v8.8h5.4c3.1,0,5.2-1.1,5.2-4.4C117,41.9,114.9,40.8,111.8,40.8z"/>
			<linearGradient id="XMLID_194_" gradientUnits="userSpaceOnUse" x1="96.991" y1="51.6229" x2="130.045" y2="39.894">
				<stop  offset="0" style="stop-color:#1DA8DE"/>
				<stop  offset="1" style="stop-color:#1CC98F"/>
			</linearGradient>
			<rect id="XMLID_1028_" x="94" y="49.6" class="st14" width="13.2" height="1.5"/>
		</g>
	</g>
</g>
<g id="XMLID_68_" class="st0">
	<g id="XMLID_98_" class="st1">
		
			<linearGradient id="XMLID_195_" gradientUnits="userSpaceOnUse" x1="-0.1704" y1="92.0869" x2="24.6538" y2="61.1695" gradientTransform="matrix(1 -1.326744e-03 1.326744e-03 1 0.2096 2.7638)">
			<stop  offset="0.3817" style="stop-color:#0099CC"/>
			<stop  offset="1" style="stop-color:#7AC943"/>
		</linearGradient>
		<circle id="XMLID_104_" class="st15" cx="13.2" cy="78.5" r="13.2"/>
		<g id="XMLID_99_">
			<path id="XMLID_101_" class="st3" d="M16.7,80.9l-3.6,0l0,6.2l-2.4,0l0-15.7l6,0c3.1,0,5,2,5,4.8C21.7,78.9,19.7,80.9,16.7,80.9z
				 M16.5,73.6l-3.4,0l0,5.2l3.4,0c1.7,0,2.8-1,2.8-2.6C19.3,74.5,18.2,73.6,16.5,73.6z"/>
			
				<rect id="XMLID_100_" x="4.8" y="78.8" transform="matrix(-1 1.326744e-03 -1.326744e-03 -1 18.0018 159.7258)" class="st3" width="8.3" height="2.2"/>
		</g>
	</g>
	<g id="XMLID_69_" class="st1">
		<g id="XMLID_87_">
			<linearGradient id="XMLID_196_" gradientUnits="userSpaceOnUse" x1="84.1479" y1="65.5426" x2="130.7221" y2="52.2357">
				<stop  offset="0" style="stop-color:#1DA8DE"/>
				<stop  offset="1" style="stop-color:#1CC98F"/>
			</linearGradient>
			<path id="XMLID_95_" class="st16" d="M45.7,80.8h-5v8.7h-3.4V67.4h8.4c4.3,0,7.1,2.9,7.1,6.7C52.8,77.9,50.1,80.8,45.7,80.8z
				 M45.5,70.4h-4.9v7.4h4.9c2.3,0,3.9-1.3,3.9-3.7C49.5,71.7,47.9,70.4,45.5,70.4z"/>
			<linearGradient id="XMLID_197_" gradientUnits="userSpaceOnUse" x1="85.7022" y1="70.9826" x2="132.2764" y2="57.6757">
				<stop  offset="0" style="stop-color:#1DA8DE"/>
				<stop  offset="1" style="stop-color:#1CC98F"/>
			</linearGradient>
			<path id="XMLID_93_" class="st17" d="M60.8,89.5c-3,0-4.3-2-4.3-4.4V67.4h3.2V85c0,1.2,0.4,1.8,1.7,1.8h1.4v2.7H60.8z"/>
			<linearGradient id="XMLID_198_" gradientUnits="userSpaceOnUse" x1="87.5909" y1="77.5931" x2="134.1651" y2="64.2861">
				<stop  offset="0" style="stop-color:#1DA8DE"/>
				<stop  offset="1" style="stop-color:#1CC98F"/>
			</linearGradient>
			<path id="XMLID_90_" class="st18" d="M74.7,89.5v-1.4c-1.2,1.2-2.2,1.6-4.2,1.6c-2,0-3.3-0.5-4.2-1.4c-0.8-0.8-1.2-2.1-1.2-3.4
				c0-2.6,1.8-4.5,5.5-4.5h4.2v-1.1c0-2-1-3-3.5-3c-1.7,0-2.6,0.4-3.5,1.5l-2.1-2c1.5-1.7,3.1-2.3,5.7-2.3c4.3,0,6.5,1.8,6.5,5.4
				v10.6H74.7z M74.7,82.6H71c-1.9,0-2.8,0.8-2.8,2.3c0,1.4,0.9,2.2,2.9,2.2c1.2,0,2.1-0.1,3-0.9c0.5-0.5,0.7-1.2,0.7-2.3V82.6z"/>
			<linearGradient id="XMLID_199_" gradientUnits="userSpaceOnUse" x1="88.7761" y1="81.7413" x2="135.3503" y2="68.4344">
				<stop  offset="0" style="stop-color:#1DA8DE"/>
				<stop  offset="1" style="stop-color:#1CC98F"/>
			</linearGradient>
			<path id="XMLID_88_" class="st19" d="M92.4,89.5v-9.6c0-2.5-1.4-3.5-3.2-3.5c-1.8,0-3.3,1.1-3.3,3.5v9.6h-3.2V73.7h3.1v1.6
				c1.1-1.2,2.6-1.8,4.2-1.8c1.6,0,3,0.5,3.9,1.4c1.2,1.2,1.6,2.7,1.6,4.5v10.1H92.4z"/>
		</g>
		<g id="XMLID_80_">
			<linearGradient id="XMLID_200_" gradientUnits="userSpaceOnUse" x1="99.7185" y1="87.5747" x2="132.7725" y2="75.8459">
				<stop  offset="0" style="stop-color:#1DA8DE"/>
				<stop  offset="1" style="stop-color:#1CC98F"/>
			</linearGradient>
			<path id="XMLID_85_" class="st20" d="M126.2,89.6c-2.4,0-3.6-1.6-3.6-3.9V67.6h1.6v18.1c0,1.7,0.5,2.5,2.3,2.5h1.1v1.4H126.2z"/>
			<linearGradient id="XMLID_201_" gradientUnits="userSpaceOnUse" x1="102.1827" y1="94.5193" x2="135.2368" y2="82.7905">
				<stop  offset="0" style="stop-color:#1DA8DE"/>
				<stop  offset="1" style="stop-color:#1CC98F"/>
			</linearGradient>
			<path id="XMLID_83_" class="st21" d="M141.3,89.6v-1.8c-1.1,1.3-2.6,2-4.4,2c-1.7,0-3-0.5-4-1.4c-1-1-1.6-2.4-1.6-4.2v-9.6h1.6
				v9.3c0,2.9,1.5,4.5,4.1,4.5c2.7,0,4.2-1.7,4.2-4.5v-9.3h1.6v15H141.3z"/>
			<linearGradient id="XMLID_202_" gradientUnits="userSpaceOnUse" x1="104.0345" y1="99.738" x2="137.0885" y2="88.0092">
				<stop  offset="0" style="stop-color:#1DA8DE"/>
				<stop  offset="1" style="stop-color:#1CC98F"/>
			</linearGradient>
			<path id="XMLID_81_" class="st22" d="M153.6,89.8c-2.6,0-4.5-0.7-6.1-2.1l1.1-1.1c1.2,1.2,2.8,1.8,4.9,1.8c2.9,0,4.5-1,4.5-3.1
				c0-1.6-0.9-2.3-2.9-2.5l-2.5-0.2c-3-0.2-4.5-1.6-4.5-3.9c0-2.6,2.1-4.3,5.4-4.3c2.1,0,4,0.6,5.3,1.6l-1.1,1.1
				c-1.2-0.8-2.6-1.3-4.2-1.3c-2.5,0-3.8,1.1-3.8,2.9c0,1.6,0.9,2.3,3.1,2.5l2.4,0.2c2.5,0.2,4.4,1,4.4,3.9
				C159.6,88.1,157.3,89.8,153.6,89.8z"/>
		</g>
		<g id="XMLID_75_">
			<linearGradient id="XMLID_203_" gradientUnits="userSpaceOnUse" x1="97.521" y1="81.3816" x2="130.575" y2="69.6527">
				<stop  offset="0" style="stop-color:#1DA8DE"/>
				<stop  offset="1" style="stop-color:#1CC98F"/>
			</linearGradient>
			<path id="XMLID_77_" class="st23" d="M112,79.3h-5.6v10.2h-1.7v-22h7.3c3.9,0,6.8,1.9,6.8,5.9C118.7,77.4,115.9,79.3,112,79.3z
				 M111.8,69h-5.4v8.8h5.4c3.1,0,5.2-1.1,5.2-4.4C117,70.1,114.9,69,111.8,69z"/>
			<linearGradient id="XMLID_204_" gradientUnits="userSpaceOnUse" x1="96.9732" y1="79.838" x2="130.0273" y2="68.1091">
				<stop  offset="0" style="stop-color:#1DA8DE"/>
				<stop  offset="1" style="stop-color:#1CC98F"/>
			</linearGradient>
			<rect id="XMLID_76_" x="94" y="77.8" class="st24" width="13.2" height="1.5"/>
		</g>
		<g id="XMLID_70_">
			<linearGradient id="XMLID_205_" gradientUnits="userSpaceOnUse" x1="97.5387" y1="81.4317" x2="130.5928" y2="69.7029">
				<stop  offset="0" style="stop-color:#1DA8DE"/>
				<stop  offset="1" style="stop-color:#1CC98F"/>
			</linearGradient>
			<path id="XMLID_72_" class="st25" d="M112,79.4h-5.6v10.2h-1.7v-22h7.3c3.9,0,6.8,1.9,6.8,5.9S115.9,79.4,112,79.4z M111.8,69.1
				h-5.4v8.8h5.4c3.1,0,5.2-1.1,5.2-4.4C117,70.2,114.9,69.1,111.8,69.1z"/>
			<linearGradient id="XMLID_206_" gradientUnits="userSpaceOnUse" x1="96.991" y1="79.8881" x2="130.045" y2="68.1593">
				<stop  offset="0" style="stop-color:#1DA8DE"/>
				<stop  offset="1" style="stop-color:#1CC98F"/>
			</linearGradient>
			<rect id="XMLID_71_" x="94" y="77.9" class="st26" width="13.2" height="1.5"/>
		</g>
	</g>
</g>
<rect id="XMLID_67_" y="65.3" class="st27" width="159.6" height="26.5"/>
<g id="XMLID_282_">
	<g id="XMLID_333_">
		
			<linearGradient id="XMLID_207_" gradientUnits="userSpaceOnUse" x1="-8.385511e-02" y1="26.8218" x2="24.7404" y2="-4.0957" gradientTransform="matrix(1 -1.326744e-03 1.326744e-03 1 0.2096 2.7638)">
			<stop  offset="0.3817" style="stop-color:#0099CC"/>
			<stop  offset="1" style="stop-color:#7AC943"/>
		</linearGradient>
		<circle id="XMLID_339_" class="st28" cx="13.2" cy="13.2" r="13.2"/>
		<g id="XMLID_334_">
			<path id="XMLID_336_" class="st3" d="M16.7,15.7l-3.6,0l0,6.2l-2.4,0l0-15.7l6,0c3.1,0,5,2,5,4.8C21.7,13.6,19.7,15.7,16.7,15.7z
				 M16.5,8.3l-3.4,0l0,5.2l3.4,0c1.7,0,2.8-1,2.8-2.6C19.3,9.3,18.2,8.3,16.5,8.3z"/>
			
				<rect id="XMLID_335_" x="4.8" y="13.5" transform="matrix(-1 1.326744e-03 -1.326744e-03 -1 17.9152 29.1953)" class="st3" width="8.3" height="2.2"/>
		</g>
	</g>
	<g id="XMLID_283_">
		<g id="XMLID_305_">
			<path id="XMLID_330_" class="st3" d="M45.7,15.5h-5v8.7h-3.4V2.1h8.4c4.3,0,7.1,2.9,7.1,6.7C52.8,12.7,50.1,15.5,45.7,15.5z
				 M45.5,5.1h-4.9v7.4h4.9c2.3,0,3.9-1.3,3.9-3.7C49.5,6.5,47.9,5.1,45.5,5.1z"/>
			<path id="XMLID_328_" class="st3" d="M60.8,24.3c-3,0-4.3-2-4.3-4.4V2.1h3.2v17.6c0,1.2,0.4,1.8,1.7,1.8h1.4v2.7H60.8z"/>
			<path id="XMLID_308_" class="st3" d="M74.7,24.3v-1.4c-1.2,1.2-2.2,1.6-4.2,1.6c-2,0-3.3-0.5-4.2-1.4C65.5,22.2,65,21,65,19.6
				c0-2.6,1.8-4.5,5.5-4.5h4.2V14c0-2-1-3-3.5-3c-1.7,0-2.6,0.4-3.5,1.5l-2.1-2c1.5-1.7,3.1-2.3,5.7-2.3c4.3,0,6.5,1.8,6.5,5.4v10.6
				H74.7z M74.7,17.3H71c-1.9,0-2.8,0.8-2.8,2.3c0,1.4,0.9,2.2,2.9,2.2c1.2,0,2.1-0.1,3-0.9c0.5-0.5,0.7-1.2,0.7-2.3V17.3z"/>
			<path id="XMLID_306_" class="st3" d="M92.4,24.3v-9.6c0-2.5-1.4-3.5-3.2-3.5c-1.8,0-3.3,1.1-3.3,3.5v9.6h-3.2V8.5h3.1v1.6
				c1.1-1.2,2.6-1.8,4.2-1.8c1.6,0,3,0.5,3.9,1.4c1.2,1.2,1.6,2.7,1.6,4.5v10.1H92.4z"/>
		</g>
		<g id="XMLID_298_">
			<path id="XMLID_303_" class="st3" d="M126.2,24.4c-2.4,0-3.6-1.6-3.6-3.9V2.3h1.6v18.1c0,1.7,0.5,2.5,2.3,2.5h1.1v1.4H126.2z"/>
			<path id="XMLID_301_" class="st3" d="M141.3,24.4v-1.8c-1.1,1.3-2.6,2-4.4,2c-1.7,0-3-0.5-4-1.4c-1-1-1.6-2.4-1.6-4.2V9.3h1.6
				v9.3c0,2.9,1.5,4.5,4.1,4.5c2.7,0,4.2-1.7,4.2-4.5V9.3h1.6v15H141.3z"/>
			<path id="XMLID_299_" class="st3" d="M153.6,24.5c-2.6,0-4.5-0.7-6.1-2.1l1.1-1.1c1.2,1.2,2.8,1.8,4.9,1.8c2.9,0,4.5-1,4.5-3.1
				c0-1.6-0.9-2.3-2.9-2.5l-2.5-0.2c-3-0.2-4.5-1.6-4.5-3.9c0-2.6,2.1-4.3,5.4-4.3c2.1,0,4,0.6,5.3,1.6l-1.1,1.1
				c-1.2-0.8-2.6-1.3-4.2-1.3c-2.5,0-3.8,1.1-3.8,2.9c0,1.6,0.9,2.3,3.1,2.5l2.4,0.2c2.5,0.2,4.4,1,4.4,3.9
				C159.6,22.8,157.3,24.5,153.6,24.5z"/>
		</g>
		<g id="XMLID_290_">
			<path id="XMLID_295_" class="st3" d="M112,14h-5.6v10.2h-1.7v-22h7.3c3.9,0,6.8,1.9,6.8,5.9S115.9,14,112,14z M111.8,3.8h-5.4
				v8.8h5.4c3.1,0,5.2-1.1,5.2-4.4C117,4.8,114.9,3.8,111.8,3.8z"/>
			<rect id="XMLID_294_" x="94" y="12.5" class="st3" width="13.2" height="1.5"/>
		</g>
		<g id="XMLID_284_">
			<path id="XMLID_286_" class="st3" d="M112,14.1h-5.6v10.2h-1.7v-22h7.3c3.9,0,6.8,1.9,6.8,5.9S115.9,14.1,112,14.1z M111.8,3.8
				h-5.4v8.8h5.4c3.1,0,5.2-1.1,5.2-4.4C117,4.9,114.9,3.8,111.8,3.8z"/>
			<rect id="XMLID_285_" x="94" y="12.6" class="st3" width="13.2" height="1.5"/>
		</g>
	</g>
</g>
</svg>
